<svg width="11" height="10" viewBox="0 0 11 10" fill="none" xmlns="http://www.w3.org/2000/svg">
<path d="M10 1L6 5L10 9" stroke="#4E61A2"  stroke-width="1.2"/>
<path d="M5 1L1 5L5 9" stroke="#4E61A2"  stroke-width="1.2"/>
</svg>
